…
```
## # A tibble: 5,750 × 11
## # Groups:   coal_destination_country, year [1,906]
##    coal_destination_country  year quarter steam_coal steam_revenue metallurgical
##    <chr>                    <dbl>   <dbl>      <dbl>         <dbl>         <dbl>
##  1 Albania                   2016       4         74          7701             0
##  2 Albania                   2023       2      24152       2554925             0
##  3 Algeria                   2002       1       5952        150930        123353
##  4 Algeria                   2002       3          0             0         62931
##  5 Algeria                   2002       4          0             0        129563
##  6 Algeria                   2003       1          0             0        128525
##  7 Algeria                   2003       2          0             0         70539
##  8 Algeria                   2003       3          0             0        141813
##  9 Algeria                   2003       4          0             0         66499
## 10 Algeria                   2004       1          0             0        141438
## # ℹ 5,740 more rows
## # ℹ 5 more variables: metallurgical_revenue <dbl>, total <dbl>,
## #   total_revenue <dbl>, coke <dbl>, coke_revenue <dbl>
```
…
``` r
coal_country %>%
    group_by(year) %>%
    summarize(unique_countries = n_distinct(coal_destination_country))
```

```
## # A tibble: 24 × 2
##     year unique_countries
##    <dbl>            <int>
##  1  2002               62
##  2  2003               63
##  3  2004               71
##  4  2005               73
##  5  2006               73
##  6  2007               82
##  7  2008               92
##  8  2009               98
##  9  2010               99
## 10  2011               86
## # ℹ 14 more rows
```
…
balanced_coal %>%
    group_by(year, quarter) %>%
    summarize(unique_countries = n_distinct(coal_destination_country))
```

```
## # A tibble: 96 × 3
## # Groups:   year [24]
##     year quarter unique_countries
##    <dbl>   <dbl>            <int>
##  1  2002       1              152
##  2  2002       2              152
##  3  2002       3              152
##  4  2002       4              152
##  5  2003       1              152
##  6  2003       2              152
##  7  2003       3              152
##  8  2003       4              152
##  9  2004       1              152
## 10  2004       2              152
## # ℹ 86 more rows
```
…
